console_app_4_string_test.py;Radek;"Hi
NeozMatrixa
";"Hi
NeozMatrixa
";\sample_tests\console_app_4_string_test.py
console_app_4_string_test.py;Damian;"Hello Damian, welcome in my program
Damian
";"Hello Damian, welcome in my program
Damian
";\sample_tests\console_app_4_string_test.py
